{
    "_links": {
        "self": {
            "href": "http:\/\/default\/admin\/structure\/menu\/item\/17\/edit?_format=hal_json"
        },
        "type": {
            "href": "http:\/\/drupal.org\/rest\/type\/menu_link_content\/menu_link_content"
        }
    },
    "id": [
        {
            "value": 17
        }
    ],
    "uuid": [
        {
            "value": "bf545a51-01f0-4b4f-8e17-864c79768a60"
        }
    ],
    "langcode": [
        {
            "value": "en",
            "lang": "en"
        }
    ],
    "bundle": [
        {
            "value": "menu_link_content"
        }
    ],
    "title": [
        {
            "value": "Research and Development",
            "lang": "en"
        }
    ],
    "description": [
        {
            "value": "Go to the NAVAIR Research and Development area",
            "lang": "en"
        }
    ],
    "menu_name": [
        {
            "value": "main"
        }
    ],
    "link": [
        {
            "uri": "internal:\/",
            "title": "",
            "options": []
        }
    ],
    "external": [
        {
            "value": false
        }
    ],
    "rediscover": [
        {
            "value": true
        }
    ],
    "weight": [
        {
            "value": 0
        }
    ],
    "expanded": [
        {
            "value": false
        }
    ],
    "enabled": [
        {
            "value": true
        }
    ],
    "parent": [
        {
            "value": "menu_link_content:87fe50f3-c37d-4a10-89cf-b078762a4ecd"
        }
    ],
    "changed": [
        {
            "value": "2018-10-19T14:47:49+00:00",
            "lang": "en",
            "format": "Y-m-d\\TH:i:sP"
        }
    ],
    "default_langcode": [
        {
            "value": true,
            "lang": "en"
        }
    ],
    "metatag": [
        {
            "value": {
                "title": "| (Local) Naval Air Systems Command",
                "canonical_url": "http:\/\/default\/home"
            }
        }
    ]
}
