{
    "_links": {
        "self": {
            "href": "http:\/\/default\/admin\/structure\/menu\/item\/14\/edit?_format=hal_json"
        },
        "type": {
            "href": "http:\/\/drupal.org\/rest\/type\/menu_link_content\/menu_link_content"
        }
    },
    "id": [
        {
            "value": 14
        }
    ],
    "uuid": [
        {
            "value": "af14e5c0-c615-4a45-a040-5778709252b4"
        }
    ],
    "langcode": [
        {
            "value": "en",
            "lang": "en"
        }
    ],
    "bundle": [
        {
            "value": "menu_link_content"
        }
    ],
    "title": [
        {
            "value": "Naval Aviation Support",
            "lang": "en"
        }
    ],
    "description": [
        {
            "value": "Go to the Naval Aviation Support area",
            "lang": "en"
        }
    ],
    "menu_name": [
        {
            "value": "main"
        }
    ],
    "link": [
        {
            "uri": "internal:\/",
            "title": "",
            "options": []
        }
    ],
    "external": [
        {
            "value": false
        }
    ],
    "rediscover": [
        {
            "value": true
        }
    ],
    "weight": [
        {
            "value": 60
        }
    ],
    "expanded": [
        {
            "value": true
        }
    ],
    "enabled": [
        {
            "value": true
        }
    ],
    "parent": [
        {
            "value": "menu_link_content:a7c3c3a0-0055-469d-aee1-f3b14c9b9658"
        }
    ],
    "changed": [
        {
            "value": "2018-10-19T14:56:56+00:00",
            "lang": "en",
            "format": "Y-m-d\\TH:i:sP"
        }
    ],
    "default_langcode": [
        {
            "value": true,
            "lang": "en"
        }
    ],
    "metatag": [
        {
            "value": {
                "title": "| (Local) Naval Air Systems Command",
                "canonical_url": "http:\/\/default\/home"
            }
        }
    ]
}
