{
    "_links": {
        "self": {
            "href": "http:\/\/default\/admin\/structure\/menu\/item\/34\/edit?_format=hal_json"
        },
        "type": {
            "href": "http:\/\/drupal.org\/rest\/type\/menu_link_content\/menu_link_content"
        }
    },
    "id": [
        {
            "value": 34
        }
    ],
    "uuid": [
        {
            "value": "5b554328-a3ef-42fd-b27e-f4742186a899"
        }
    ],
    "langcode": [
        {
            "value": "en",
            "lang": "en"
        }
    ],
    "bundle": [
        {
            "value": "menu_link_content"
        }
    ],
    "title": [
        {
            "value": "Photo Gallery",
            "lang": "en"
        }
    ],
    "description": [
        {
            "value": "View the NAVAIR News Photo Gallery",
            "lang": "en"
        }
    ],
    "menu_name": [
        {
            "value": "main"
        }
    ],
    "link": [
        {
            "uri": "internal:\/",
            "title": "",
            "options": []
        }
    ],
    "external": [
        {
            "value": false
        }
    ],
    "rediscover": [
        {
            "value": true
        }
    ],
    "weight": [
        {
            "value": 0
        }
    ],
    "expanded": [
        {
            "value": false
        }
    ],
    "enabled": [
        {
            "value": true
        }
    ],
    "parent": [
        {
            "value": "menu_link_content:ac0bc587-0270-4ca4-8983-d04220d9c570"
        }
    ],
    "changed": [
        {
            "value": "2018-10-19T15:26:31+00:00",
            "lang": "en",
            "format": "Y-m-d\\TH:i:sP"
        }
    ],
    "default_langcode": [
        {
            "value": true,
            "lang": "en"
        }
    ],
    "metatag": [
        {
            "value": {
                "title": "| (Local) Naval Air Systems Command",
                "canonical_url": "http:\/\/default\/home"
            }
        }
    ]
}
