{
  "_links": {
    "self": {
      "href": "http:\/\/default\/fixed-wing?_format=hal_json"
    },
    "type": {
      "href": "http:\/\/drupal.org\/rest\/type\/taxonomy_term\/products"
    }
  },
  "tid": [
    {
      "value": 1
    }
  ],
  "uuid": [
    {
      "value": "fa24fd71-c876-4d06-8f3d-34b1cfe5dee3"
    }
  ],
  "langcode": [
    {
      "value": "en",
      "lang": "en"
    }
  ],
  "vid": [
    {
      "target_id": "products"
    }
  ],
  "name": [
    {
      "value": "Fixed Wing",
      "lang": "en"
    }
  ],
  "weight": [
    {
      "value": 0
    }
  ],
  "changed": [
    {
      "value": "2018-10-18T13:41:33+00:00",
      "lang": "en",
      "format": "Y-m-d\\TH:i:sP"
    }
  ],
  "default_langcode": [
    {
      "value": true,
      "lang": "en"
    }
  ],
  "metatag": [
    {
      "value": {
        "title": "Fixed Wing | base-Naval Air Systems Command",
        "canonical_url": "http:\/\/default\/fixed-wing"
      }
    }
  ],
  "path": [
    {
      "alias": "\/fixed-wing",
      "pid": 3,
      "langcode": "en",
      "lang": "en"
    }
  ]
}
