{
    "_links": {
        "self": {
            "href": "http:\/\/default\/taxonomy\/term\/10?_format=hal_json"
        },
        "type": {
            "href": "http:\/\/drupal.org\/rest\/type\/taxonomy_term\/business_category"
        }
    },
    "tid": [
        {
            "value": 10
        }
    ],
    "uuid": [
        {
            "value": "4cf664a3-b16a-41bf-9159-e0a19d221fe8"
        }
    ],
    "langcode": [
        {
            "value": "en",
            "lang": "en"
        }
    ],
    "vid": [
        {
            "target_id": "business_category"
        }
    ],
    "name": [
        {
            "value": "Large Business",
            "lang": "en"
        }
    ],
    "description": [
        {
            "value": "<p>You are classified as a Large Business.<\/p>\r\n",
            "format": "rich_text",
            "processed": "<p>You are classified as a Large Business.<\/p>",
            "lang": "en"
        }
    ],
    "weight": [
        {
            "value": 4
        }
    ],
    "changed": [
        {
            "value": "2018-10-23T12:07:50+00:00",
            "lang": "en",
            "format": "Y-m-d\\TH:i:sP"
        }
    ],
    "default_langcode": [
        {
            "value": true,
            "lang": "en"
        }
    ],
    "metatag": [
        {
            "value": {
                "title": "Large Business | NAVAIR",
                "canonical_url": "http:\/\/default\/taxonomy\/term\/10",
                "description": "You are classified as a Large Business."
            }
        }
    ]
}
