{
    "_links": {
        "self": {
            "href": "http:\/\/default\/taxonomy\/term\/14?_format=hal_json"
        },
        "type": {
            "href": "http:\/\/drupal.org\/rest\/type\/taxonomy_term\/business_category"
        }
    },
    "tid": [
        {
            "value": 14
        }
    ],
    "uuid": [
        {
            "value": "14af0e1f-0041-4e5c-bd5a-047931174560"
        }
    ],
    "langcode": [
        {
            "value": "en",
            "lang": "en"
        }
    ],
    "vid": [
        {
            "target_id": "business_category"
        }
    ],
    "name": [
        {
            "value": "Veteran Owned Small Business",
            "lang": "en"
        }
    ],
    "description": [
        {
            "value": "<p>You are classified as a&nbsp;Veteran Owned Small Business.<\/p>\r\n",
            "format": "rich_text",
            "processed": "<p>You are classified as a\u00a0Veteran Owned Small Business.<\/p>",
            "lang": "en"
        }
    ],
    "weight": [
        {
            "value": 8
        }
    ],
    "changed": [
        {
            "value": "2018-10-23T12:07:50+00:00",
            "lang": "en",
            "format": "Y-m-d\\TH:i:sP"
        }
    ],
    "default_langcode": [
        {
            "value": true,
            "lang": "en"
        }
    ],
    "metatag": [
        {
            "value": {
                "title": "Veteran Owned Small Business | NAVAIR",
                "canonical_url": "http:\/\/default\/taxonomy\/term\/14",
                "description": "You are classified as a\u00a0Veteran Owned Small Business."
            }
        }
    ]
}
