{
    "_links": {
        "self": {
            "href": "http:\/\/default\/navair?_format=hal_json"
        },
        "type": {
            "href": "http:\/\/drupal.org\/rest\/type\/taxonomy_term\/organization"
        }
    },
    "tid": [
        {
            "value": 16
        }
    ],
    "uuid": [
        {
            "value": "2615c5e4-887a-4396-a974-c3c57019b7e9"
        }
    ],
    "langcode": [
        {
            "value": "en",
            "lang": "en"
        }
    ],
    "vid": [
        {
            "target_id": "organization"
        }
    ],
    "name": [
        {
            "value": "NAVAIR",
            "lang": "en"
        }
    ],
    "weight": [
        {
            "value": 0
        }
    ],
    "changed": [
        {
            "value": "2018-10-29T13:31:52+00:00",
            "lang": "en",
            "format": "Y-m-d\\TH:i:sP"
        }
    ],
    "default_langcode": [
        {
            "value": true,
            "lang": "en"
        }
    ],
    "metatag": [
        {
            "value": {
                "title": "NAVAIR | local-NAVAIR",
                "canonical_url": "http:\/\/default\/navair"
            }
        }
    ],
    "path": [
        {
            "alias": "\/navair",
            "pid": 11,
            "langcode": "en",
            "lang": "en"
        }
    ]
}
