{
    "_links": {
        "self": {
            "href": "http:\/\/default\/nawcwd?_format=hal_json"
        },
        "type": {
            "href": "http:\/\/drupal.org\/rest\/type\/taxonomy_term\/organization"
        }
    },
    "tid": [
        {
            "value": 18
        }
    ],
    "uuid": [
        {
            "value": "4a3de901-0fa9-496d-8706-3bf202fa961e"
        }
    ],
    "langcode": [
        {
            "value": "en",
            "lang": "en"
        }
    ],
    "vid": [
        {
            "target_id": "organization"
        }
    ],
    "name": [
        {
            "value": "NAWCWD",
            "lang": "en"
        }
    ],
    "weight": [
        {
            "value": 2
        }
    ],
    "changed": [
        {
            "value": "2018-10-29T13:32:07+00:00",
            "lang": "en",
            "format": "Y-m-d\\TH:i:sP"
        }
    ],
    "default_langcode": [
        {
            "value": true,
            "lang": "en"
        }
    ],
    "metatag": [
        {
            "value": {
                "title": "NAWCWD | local-NAVAIR",
                "canonical_url": "http:\/\/default\/nawcwd"
            }
        }
    ],
    "path": [
        {
            "alias": "\/nawcwd",
            "pid": 6,
            "langcode": "en",
            "lang": "en"
        }
    ]
}
