{
    "_links": {
        "self": {
            "href": "http:\/\/default\/block\/1?_format=hal_json"
        },
        "type": {
            "href": "http:\/\/drupal.org\/rest\/type\/block_content\/basic"
        }
    },
    "id": [
        {
            "value": 1
        }
    ],
    "uuid": [
        {
            "value": "88e0e997-8a79-42a1-9a75-1e3e8017dac1"
        }
    ],
    "revision_id": [
        {
            "value": 1
        }
    ],
    "langcode": [
        {
            "value": "en",
            "lang": "en"
        }
    ],
    "type": [
        {
            "target_id": "basic"
        }
    ],
    "revision_created": [
        {
            "value": "2018-10-19T17:38:07+00:00",
            "format": "Y-m-d\\TH:i:sP"
        }
    ],
    "status": [
        {
            "value": true,
            "lang": "en"
        }
    ],
    "info": [
        {
            "value": "Informational",
            "lang": "en"
        }
    ],
    "changed": [
        {
            "value": "2018-10-31T14:54:38+00:00",
            "lang": "en",
            "format": "Y-m-d\\TH:i:sP"
        }
    ],
    "default_langcode": [
        {
            "value": true,
            "lang": "en"
        }
    ],
    "revision_translation_affected": [
        {
            "value": true,
            "lang": "en"
        }
    ],
    "metatag": [
        {
            "value": {
                "title": "| local-NAVAIR",
                "canonical_url": "http:\/\/default\/"
            }
        }
    ],
    "body": [
        {
            "value": "<p>This is an official <a href=\"https:\/\/www.navy.mil\/\">U.S. Navy<\/a> Web site. This site is a U.S. Department of Defense System.<\/p>\r\n\r\n<p><a href=\"http:\/\/www.navair.navy.mil\/FOIA\">FOIA<\/a> - <a href=\"https:\/\/www.navair.navy.mil\/privacy\">Privacy Policy\/External Links<\/a> - <a href=\"http:\/\/www.secnav.navy.mil\/donhr\/Site\/Pages\/No-Fear-Act.aspx\">No Fear Act<\/a><\/p>\r\n\r\n<p><a href=\"http:\/\/dodcio.defense.gov\/DoDSection508\/Std_Stmt.aspx\">Accessibility\/Section 508<\/a><\/p>\r\n\r\n<p>Commander, Naval Air Systems Command, 47123 Buse Road, Building 2272 Suite 540, Patuxent River, MD 20670<\/p>\r\n",
            "format": "rich_text",
            "processed": "<p>This is an official <a href=\"https:\/\/www.navy.mil\/\">U.S. Navy<\/a> Web site. This site is a U.S. Department of Defense System.<\/p>\n\n<p><a href=\"http:\/\/www.navair.navy.mil\/FOIA\">FOIA<\/a> - <a href=\"https:\/\/www.navair.navy.mil\/privacy\">Privacy Policy\/External Links<\/a> - <a href=\"http:\/\/www.secnav.navy.mil\/donhr\/Site\/Pages\/No-Fear-Act.aspx\">No Fear Act<\/a><\/p>\n\n<p><a href=\"http:\/\/dodcio.defense.gov\/DoDSection508\/Std_Stmt.aspx\">Accessibility\/Section 508<\/a><\/p>\n\n<p>Commander, Naval Air Systems Command, 47123 Buse Road, Building 2272 Suite 540, Patuxent River, MD 20670<\/p>",
            "summary": "",
            "lang": "en"
        }
    ]
}
